{
  "project_info": {
    "project_number": "313829117881",
    "firebase_url": "https://diary-87815.firebaseio.com",
    "project_id": "diary-87815",
    "storage_bucket": "diary-87815.appspot.com"
  },
  "client": [
    {
      "client_info": {
        "mobilesdk_app_id": "1:313829117881:android:8190105c7065e2adcd7068",
        "android_client_info": {
          "package_name": "com.example.diary"
        }
      },
      "oauth_client": [
        {
          "client_id": "313829117881-dgrej4idlojl928274jg7rj0glro9opn.apps.googleusercontent.com",
          "client_type": 1,
          "android_info": {
            "package_name": "com.example.diary",
            "certificate_hash": "b27879d106dc2b3119469bfcbf830b855338ab7a"
          }
        },
        {
          "client_id": "313829117881-mkgu2e17eb07ubkoi8199cvm5b4d0nu7.apps.googleusercontent.com",
          "client_type": 3
        }
      ],
      "api_key": [
        {
          "current_key": "AIzaSyAg1mIMGhCAYo3LG4e6fI73DIvs_8k9UUQ"
        }
      ],
      "services": {
        "appinvite_service": {
          "other_platform_oauth_client": [
            {
              "client_id": "313829117881-mkgu2e17eb07ubkoi8199cvm5b4d0nu7.apps.googleusercontent.com",
              "client_type": 3
            }
          ]
        }
      }
    }
  ],
  "configuration_version": "1"
}